…
SAMPLE_NO 1

```r
data_all %>%
  filter(MYEAR %in% 2020) %>%
  group_by(STATION_CODE, TISSUE_NAME) %>% 
  summarise(Sample_no = paste(min(SAMPLE_NO), "-", max(SAMPLE_NO)),
            .groups = "drop") %>%
  spread(TISSUE_NAME, Sample_no)
```

```
## # A tibble: 56 × 8
##    STATION_CODE Blod  Egg   Galle  Lever   `Liver - microsome` Muskel Whole so…¹
##    <chr>        <chr> <chr> <chr>  <chr>   <chr>               <chr>  <chr>     
##  1 02B          <NA>  <NA>  <NA>   1 - 8   <NA>                1 - 15 <NA>      
##  2 10A2         <NA>  <NA>  <NA>   <NA>    <NA>                <NA>   1 - 3     
##  3 10B          <NA>  <NA>  <NA>   1 - 115 <NA>                1 - 15 <NA>      
##  4 11G          <NA>  <NA>  <NA>   <NA>    <NA>                <NA>   1 - 1     
##  5 11X          <NA>  <NA>  <NA>   <NA>    <NA>                <NA>   1 - 3     
##  6 131G         <NA>  <NA>  <NA>   <NA>    <NA>                <NA>   1 - 1     
##  7 13B          <NA>  <NA>  <NA>   1 - 8   <NA>                1 - 15 <NA>      
##  8 15A          <NA>  <NA>  <NA>   <NA>    <NA>                <NA>   1 - 3     
##  9 15B          <NA>  <NA>  1 - 15 1 - 15  <NA>                1 - 15 <NA>      
## 10 15G          <NA>  <NA>  <NA>   <NA>    <NA>                <NA>   1 - 1     
## # … with 46 more rows, and abbreviated variable name ¹​`Whole soft body`
```
…
df <- left_join(df1, df2)
```

```
## Joining, by = "PARAM"
```

```r
df %>%
  filter(UNCRT_lacking == 0)
```

```
## # A tibble: 93 × 5
##    PARAM  UNCRT_lacking Eurofins  NILU  NIVA
##    <chr>          <dbl>    <dbl> <dbl> <dbl>
##  1 ACNE               0        0    NA    NA
##  2 ACNLE              0        0    NA    NA
##  3 AG                 0        0     0    NA
##  4 ANT                0        0    NA    NA
##  5 AS                 0        0     0    NA
##  6 BAA                0        0    NA    NA
##  7 BAP                0        0    NA    NA
##  8 BBJF               0        0    NA    NA
##  9 BDE100             0        0     0    NA
## 10 BDE119             0        0     0    NA
## # … with 83 more rows
```
…
df_liver$sum <- apply(df_liver[,c("Vekt1", "Vekt2", "Vekt3")], 1, sum, na.rm = TRUE)

df_liver <- df_liver %>%
  select(-Pooled_no)

df_liver
```

```
## # A tibble: 230 × 10
##    STATION_CODE SAMPLE_NO Pooled FiskN…¹ FiskN…² FiskN…³ Vekt1 Vekt2 Vekt3   sum
##    <chr>            <dbl> <chr>    <dbl>   <dbl>   <dbl> <dbl> <dbl> <dbl> <dbl>
##  1 02B                  1 enkel        1      NA      NA  12.2  NA      NA  12.2
##  2 02B                  2 enkel        2      NA      NA  11.4  NA      NA  11.4
##  3 02B                  3 bland        9      14      NA  11.2  12.4    NA  23.5
##  4 02B                  4 bland        5       6      NA  12.1  12.0    NA  24.1
##  5 02B                  5 bland        7      16      NA  11.5  11.9    NA  23.4
##  6 02B                  6 bland        4      11      NA  12.3  12.0    NA  24.3
##  7 02B                  7 bland        3      12      NA  12.2  12.1    NA  24.3
##  8 02B                  8 bland        8      10      NA  11.8  11.9    NA  23.7
##  9 10B                  1 bland        1       2      NA  12.9  11.8    NA  24.7
## 10 10B                  3 bland        3      19      NA  11.4  12.0    NA  23.4
## # … with 220 more rows, and abbreviated variable names ¹​FiskNr_1, ²​FiskNr_2,
## #   ³​FiskNr_3
```
…
# Use this code only if no pooled samples of muscle
# Otherwise d as for liver
df_muscle <- df_muscle %>%
  mutate(Fish_no = 
           case_when(is.na(Pooled_no) ~ SAMPLE_NO,
                     !is.na(Pooled_no) ~ as.numeric(Pooled_no))
  )

df_muscle
```

```
## # A tibble: 255 × 5
##    STATION_CODE SAMPLE_NO Pooled_no Pooled Fish_no
##    <chr>            <dbl> <chr>     <chr>    <dbl>
##  1 02B                  1 <NA>      enkel        1
##  2 02B                  2 <NA>      enkel        2
##  3 02B                  3 <NA>      enkel        3
##  4 02B                  4 <NA>      enkel        4
##  5 02B                  5 <NA>      enkel        5
##  6 02B                  6 <NA>      enkel        6
##  7 02B                  7 <NA>      enkel        7
##  8 02B                  8 <NA>      enkel        8
##  9 02B                  9 <NA>      enkel        9
## 10 02B                 10 <NA>      enkel       10
## # … with 245 more rows
```
…
```r
data_04_fish_main %>% 
  filter(STATION_CODE == example_station) %>%
  # select(STATION_CODE, SUBNO, BULKID) %>%
  mutate(Sort = case_when(
    is.na(BULKID) ~ SUBNO,
    BULKID == "" ~ SUBNO,
    !is.na(BULKID) ~ as.numeric(BULKID))
  ) %>%
  arrange(Sort) %>%
  select(-Sort)
```

```
## # A tibble: 21 × 9
##    STATION_CODE LATIN_NAME   Fish_no NOIMP SAMPLE_N…¹ SAMPL…² SUBNO BULKID SMPNO
##    <chr>        <chr>          <dbl> <dbl>      <dbl>   <dbl> <dbl> <chr>  <int>
##  1 02B          Gadus morhua       1     1          1       1     1 ""         1
##  2 02B          Gadus morhua       2     1          2       2     2 ""         1
##  3 02B          Gadus morhua      13     1         13      NA    13 ""         1
##  4 02B          Gadus morhua       9     1          9      NA     9 "17"       1
##  5 02B          Gadus morhua      14     1         14      NA    14 "17"       1
##  6 02B          Gadus morhua      NA     2         NA       3    17 ""         1
##  7 02B          Gadus morhua       5     1          5      NA     5 "18"       1
##  8 02B          Gadus morhua       6     1          6      NA     6 "18"       1
##  9 02B          Gadus morhua      NA     2         NA       4    18 ""         1
## 10 02B          Gadus morhua       7     1          7      NA     7 "19"       1
## # … with 11 more rows, and abbreviated variable names ¹​SAMPLE_NO_Muscle,
## #   ²​SAMPLE_NO_Liver
```
…
tab <- df_uncertainty %>%
  count(PARAM, Lab, Uncert) %>%
  pivot_wider(names_from = "Uncert", values_from = "n", values_fill = 0, names_sort = TRUE)
tab
```

```
## # A tibble: 113 × 5
##    PARAM Lab      `1 - Under LOQ` `2 - Over LOQ, NA` `4 - Over LOQ, OK`
##    <chr> <chr>              <int>              <int>              <int>
##  1 ACNE  Eurofins              26                  0                  0
##  2 ACNLE Eurofins              18                  0                  8
##  3 AG    Eurofins              77                  0                228
##  4 AG    NILU                   0                  0                 30
##  5 ALAD  NIVA                   0                 47                  0
##  6 ANT   Eurofins               8                  0                 18
##  7 AS    Eurofins               0                  0                311
##  8 AS    NILU                   0                  0                 30
##  9 BAA   Eurofins               8                  0                 18
## 10 BAP   Eurofins              14                  0                 12
## # … with 103 more rows
```
…
tab <- tab %>%
  mutate(Total = tot,
         NotOK = round(not_ok/over_loq*100, 1)
         ) %>%
  filter(Total > 0) %>%
  arrange(NotOK)

tab
```

```
## # A tibble: 113 × 7
##    PARAM Lab      `1 - Under LOQ` `2 - Over LOQ, NA` 4 - Over LOQ,…¹ Total NotOK
##    <chr> <chr>              <int>              <int>           <int> <int> <dbl>
##  1 ACNLE Eurofins              18                  0               8    26     0
##  2 AG    Eurofins              77                  0             228   305     0
##  3 AG    NILU                   0                  0              30    30     0
##  4 ANT   Eurofins               8                  0              18    26     0
##  5 AS    Eurofins               0                  0             311   311     0
##  6 AS    NILU                   0                  0              30    30     0
##  7 BAA   Eurofins               8                  0              18    26     0
##  8 BAP   Eurofins              14                  0              12    26     0
##  9 BBJF  Eurofins               5                  0              21    26     0
## 10 BD100 Eurofins               1                  0             182   183     0
## # … with 103 more rows, and abbreviated variable name ¹​`4 - Over LOQ, OK`
```
…
